"","Experiment","SampleName","sample_id","enrichment_method","genotype","media","rna_sample_number","sequencing_batch"
"SRX9397474","SRX9397474","GSM4872690","2_MA_C","Poly(A)","wild_type","ypd_media",2,2018
"SRX9397475","SRX9397475","GSM4872691","9_MA_C","Poly(A)","mar1d","ypd_media",9,2018
"SRX9397476","SRX9397476","GSM4872692","10_MA_C","Poly(A)","mar1d","ypd_media",10,2018
"SRX9397477","SRX9397477","GSM4872693","14_MA_C","Poly(A)","wild_type","tissue_culture_media",14,2018
"SRX9397478","SRX9397478","GSM4872694","15_MA_C","Poly(A)","wild_type","tissue_culture_media",15,2018
"SRX9397479","SRX9397479","GSM4872695","21_MA_C","Poly(A)","mar1d","tissue_culture_media",21,2018
"SRX9397480","SRX9397480","GSM4872696","22_MA_C","Poly(A)","mar1d","tissue_culture_media",22,2018
"SRX9397481","SRX9397481","GSM4872697","26_MA_C","Poly(A)","wild_type","ypd_media",26,2018
"SRX9397491","SRX9397491","GSM4872707","1_MA_J","Poly(A)","wild_type","ypd_media",1,2018
"SRX9397492","SRX9397492","GSM4872708","3_MA_J","Poly(A)","wild_type","ypd_media",3,2018
"SRX9397493","SRX9397493","GSM4872709","11_MA_J","Poly(A)","mar1d","ypd_media",11,2018
"SRX9397494","SRX9397494","GSM4872710","13_MA_J","Poly(A)","wild_type","tissue_culture_media",13,2018
"SRX9397495","SRX9397495","GSM4872711","23_MA_J","Poly(A)","mar1d","tissue_culture_media",23,2018
"SRX9397496","SRX9397496","GSM4872712","24_MA_J","Poly(A)","mar1d","tissue_culture_media",24,2018
"SRX9397497","SRX9397497","GSM4872713","36_MA_J","Poly(A)","mar1d","ypd_media",36,2018
"SRX9397498","SRX9397498","GSM4872714","40_MA_J","Poly(A)","wild_type","tissue_culture_media",40,2018
"SRX9397508","SRX9397508","GSM4872724","4_MA_P","Poly(A)","wild_type","ypd_media",4,2018
"SRX9397509","SRX9397509","GSM4872725","12_MA_P","Poly(A)","mar1d","ypd_media",12,2018
"SRX9397510","SRX9397510","GSM4872726","16_MA_P","Poly(A)","wild_type","tissue_culture_media",16,2018
"SRX9397511","SRX9397511","GSM4872727","27_MA_P","Poly(A)","wild_type","ypd_media",27,2018
"SRX9397512","SRX9397512","GSM4872728","35_MA_P","Poly(A)","mar1d","ypd_media",35,2018
"SRX9397513","SRX9397513","GSM4872729","38_MA_P","Poly(A)","wild_type","tissue_culture_media",38,2018
"SRX9397514","SRX9397514","GSM4872730","45_MA_P","Poly(A)","mar1d","tissue_culture_media",45,2018
"SRX9397515","SRX9397515","GSM4872731","47_MA_P","Poly(A)","mar1d","tissue_culture_media",47,2018
